<?xml version="1.0" encoding="UTF-8" standalone="no"?>
<!-- Created with Inkscape (http://www.inkscape.org/) -->

<svg
   xmlns:dc="http://purl.org/dc/elements/1.1/"
   xmlns:cc="http://creativecommons.org/ns#"
   xmlns:rdf="http://www.w3.org/1999/02/22-rdf-syntax-ns#"
   xmlns:svg="http://www.w3.org/2000/svg"
   xmlns="http://www.w3.org/2000/svg"
   xmlns:xlink="http://www.w3.org/1999/xlink"
   xmlns:sodipodi="http://sodipodi.sourceforge.net/DTD/sodipodi-0.dtd"
   xmlns:inkscape="http://www.inkscape.org/namespaces/inkscape"
   width="22.257221mm"
   height="30.43589mm"
   viewBox="0 0 22.257221 30.43589"
   version="1.1"
   id="svg5662"
   sodipodi:docname="sJ.svg"
   inkscape:version="0.92.4 5da689c313, 2019-01-14">
  <defs
     id="defs5656">
    <linearGradient
       id="linearGradient2060-3">
      <stop
         id="stop2062-6"
         offset="0.0000000"
         style="stop-color:#ebf0d0;stop-opacity:1.0000000;" />
      <stop
         id="stop2064-7"
         offset="1.0000000"
         style="stop-color:#ffffeb;stop-opacity:1.0000000;" />
    </linearGradient>
    <linearGradient
       gradientTransform="translate(0,-1)"
       gradientUnits="userSpaceOnUse"
       id="linearGradient4853"
       x1="2"
       x2="109"
       xlink:href="#linearGradient2060"
       y1="63.099518"
       y2="128.69501" />
    <linearGradient
       id="linearGradient2060">
      <stop
         id="stop2062"
         offset="0.0000000"
         style="stop-color:#e8ecd4;stop-opacity:1" />
      <stop
         id="stop2064"
         offset="1.0000000"
         style="stop-color:#ffffeb;stop-opacity:1.0000000;" />
    </linearGradient>
    <linearGradient
       id="linearGradient3857">
      <stop
         style="stop-color:#ffd8c1;stop-opacity:1.0000000;"
         offset="0.0000000"
         id="stop3859" />
      <stop
         style="stop-color:#ffeded;stop-opacity:1.0000000;"
         offset="1.0000000"
         id="stop3861" />
    </linearGradient>
    <linearGradient
       id="linearGradient4408">
      <stop
         style="stop-color:#ff44ab;stop-opacity:1.0000000;"
         offset="0.0000000"
         id="stop4410" />
      <stop
         style="stop-color:#ff66cc;stop-opacity:1.0000000;"
         offset="1.0000000"
         id="stop4412" />
    </linearGradient>
    <linearGradient
       id="linearGradient6214">
      <stop
         style="stop-color:#c10000;stop-opacity:1.0000000;"
         offset="0.0000000"
         id="stop6216" />
      <stop
         style="stop-color:#ff433e;stop-opacity:1.0000000;"
         offset="1.0000000"
         id="stop6218" />
    </linearGradient>
    <linearGradient
       id="linearGradient5407">
      <stop
         style="stop-color:#f0eb00;stop-opacity:1.0000000;"
         offset="0.0000000"
         id="stop5409" />
      <stop
         style="stop-color:#ffff00;stop-opacity:1.0000000;"
         offset="1.0000000"
         id="stop5411" />
    </linearGradient>
    <linearGradient
       id="linearGradient3865">
      <stop
         style="stop-color:#0083cc;stop-opacity:1;"
         offset="0"
         id="stop3867" />
      <stop
         style="stop-color:#24a4cc;stop-opacity:1.0000000;"
         offset="1.0000000"
         id="stop3869" />
    </linearGradient>
    <linearGradient
       inkscape:collect="always"
       xlink:href="#linearGradient3857"
       id="linearGradient7118"
       gradientUnits="userSpaceOnUse"
       gradientTransform="matrix(0.186825,0,0,0.144857,77.3008,1.47508)"
       x1="356.44232"
       y1="437.49887"
       x2="484.79608"
       y2="256.17966" />
    <linearGradient
       inkscape:collect="always"
       xlink:href="#linearGradient6214"
       id="linearGradient7120"
       gradientUnits="userSpaceOnUse"
       gradientTransform="matrix(0.144857,0,0,0.144857,102.2145,13.45522)"
       x1="298.98572"
       y1="540.53918"
       x2="449.32318"
       y2="415.53949" />
    <linearGradient
       inkscape:collect="always"
       xlink:href="#linearGradient6214"
       id="linearGradient6932"
       gradientUnits="userSpaceOnUse"
       gradientTransform="matrix(0.144857,0,0,0.144857,100.0937,14.80843)"
       x1="294.24606"
       y1="346.32654"
       x2="312.09238"
       y2="322.13895" />
    <linearGradient
       inkscape:collect="always"
       xlink:href="#linearGradient5407"
       id="linearGradient7122"
       gradientUnits="userSpaceOnUse"
       gradientTransform="translate(46.64643,-34.28041)"
       x1="101.39262"
       y1="124.16081"
       x2="105.54549"
       y2="120.97331" />
    <linearGradient
       inkscape:collect="always"
       xlink:href="#linearGradient3196"
       id="linearGradient7124"
       gradientUnits="userSpaceOnUse"
       gradientTransform="translate(42.50098,-33.24405)"
       x1="98.818184"
       y1="108.76363"
       x2="112.89091"
       y2="103.33409" />
    <linearGradient
       id="linearGradient3196">
      <stop
         style="stop-color:#008200;stop-opacity:1.0000000;"
         offset="0.0000000"
         id="stop3198" />
      <stop
         style="stop-color:#00d000;stop-opacity:1.0000000;"
         offset="1.0000000"
         id="stop3200" />
    </linearGradient>
    <linearGradient
       inkscape:collect="always"
       xlink:href="#linearGradient5407"
       id="linearGradient6938"
       gradientUnits="userSpaceOnUse"
       gradientTransform="translate(43.11893,-34.15541)"
       x1="103.5625"
       y1="65.108551"
       x2="111.88306"
       y2="62.671051" />
    <linearGradient
       inkscape:collect="always"
       xlink:href="#linearGradient6214"
       id="linearGradient6940"
       gradientUnits="userSpaceOnUse"
       gradientTransform="translate(46.64643,-34.28041)"
       x1="93.499947"
       y1="62.938114"
       x2="117.13919"
       y2="57.702003" />
    <linearGradient
       inkscape:collect="always"
       xlink:href="#linearGradient5407"
       id="linearGradient6942"
       gradientUnits="userSpaceOnUse"
       x1="104.75"
       y1="57.46875"
       x2="109.5"
       y2="55.78125" />
    <linearGradient
       inkscape:collect="always"
       xlink:href="#linearGradient2580"
       id="linearGradient7126"
       gradientUnits="userSpaceOnUse"
       gradientTransform="matrix(0.186852,0,0,0.144857,77.2965,1.48674)"
       x1="652.29529"
       y1="77.394516"
       x2="410.90594"
       y2="344.41714" />
    <linearGradient
       inkscape:collect="always"
       id="linearGradient2580">
      <stop
         style="stop-color:#ffffff;stop-opacity:1;"
         offset="0"
         id="stop2582" />
      <stop
         style="stop-color:#ffffff;stop-opacity:0;"
         offset="1"
         id="stop2584" />
    </linearGradient>
  </defs>
  <sodipodi:namedview
     id="base"
     pagecolor="#ffffff"
     bordercolor="#666666"
     borderopacity="1.0"
     inkscape:pageopacity="0.0"
     inkscape:pageshadow="2"
     inkscape:zoom="3.959798"
     inkscape:cx="29.421553"
     inkscape:cy="55.693573"
     inkscape:document-units="mm"
     inkscape:current-layer="layer1"
     showgrid="false"
     fit-margin-top="0"
     fit-margin-left="0"
     fit-margin-right="0"
     fit-margin-bottom="0"
     inkscape:window-width="933"
     inkscape:window-height="1029"
     inkscape:window-x="987"
     inkscape:window-y="25"
     inkscape:window-maximized="0" />
  <metadata
     id="metadata5659">
    <rdf:RDF>
      <cc:Work
         rdf:about="">
        <dc:format>image/svg+xml</dc:format>
        <dc:type
           rdf:resource="http://purl.org/dc/dcmitype/StillImage" />
        <dc:title></dc:title>
      </cc:Work>
    </rdf:RDF>
  </metadata>
  <g
     inkscape:label="Layer 1"
     inkscape:groupmode="layer"
     id="layer1"
     transform="translate(-107.55592,-41.389197)">
    <g
       id="g3500"
       transform="translate(28.728068,6.6674284)">
      <g
         transform="matrix(0.16361158,-9.8149116e-6,9.8149116e-6,0.16361158,78.664074,34.56247)"
         id="g2749">
        <path
           inkscape:connector-curvature="0"
           style="fill:#ffffff;fill-opacity:1;stroke:none;stroke-width:0.2;stroke-miterlimit:4;stroke-dashoffset:0;stroke-opacity:1"
           id="path2745"
           d="m 17,1 h 103 c 8.864,0 16,7.136 16,16 v 153 c 0,8.864 -7.136,16 -16,16 H 17 C 8.136,186 1,178.864 1,170 V 17 C 1,8.136 8.136,1 17,1 Z" />
        <path
           inkscape:connector-curvature="0"
           style="fill:url(#linearGradient4853);fill-opacity:1;stroke:none;stroke-width:0.2;stroke-miterlimit:4;stroke-dashoffset:0;stroke-opacity:1"
           id="path2747"
           d="m 18,1.9999995 h 103 c 8.864,0 16,7.136 16,16.0000005 v 153 c 0,8.864 -7.136,16 -16,16 H 18 C 9.136,187 2,179.864 2,171 V 18 C 2,9.1359995 9.136,1.9999995 18,1.9999995 Z" />
      </g>
      <path
         style="fill:#000000;fill-opacity:1;fill-rule:evenodd;stroke:none;stroke-width:0.07877041;stroke-linecap:butt;stroke-linejoin:round;stroke-miterlimit:4;stroke-opacity:1"
         sodipodi:nodetypes="cccccccccc"
         id="path2751"
         d="m 82.045605,42.51021 c -0.807332,1.282835 -3.284636,3.467348 -1.715271,4.141797 0.952624,0.310475 1.405964,-0.325082 1.597971,-0.745857 h 0.03846 l -0.632651,2.122538 1.465288,-0.0062 c 0,0 -0.631215,-2.040306 -0.632651,-2.11837 h 0.01538 c 0.155086,0.343828 0.743573,1.055604 1.390929,0.784534 1.892917,-0.759878 -0.894449,-2.922183 -1.527458,-4.178392 z"
         inkscape:connector-curvature="0" />
      <path
         inkscape:connector-curvature="0"
         d="m 97.85516,57.463786 c 0.807332,-1.282835 3.28464,-3.467348 1.715271,-4.141797 -0.952624,-0.310475 -1.405964,0.325082 -1.597972,0.745857 h -0.03846 l 0.632652,-2.122538 -1.465289,0.0062 c 0,0 0.631216,2.040306 0.632652,2.11837 h -0.01538 c -0.155087,-0.343828 -0.743573,-1.055604 -1.390929,-0.784534 -1.892917,0.759878 0.894449,2.922183 1.527458,4.178392 z"
         id="path2753"
         sodipodi:nodetypes="cccccccccc"
         style="fill:#000000;fill-opacity:1;fill-rule:evenodd;stroke:none;stroke-width:0.07877041;stroke-linecap:butt;stroke-linejoin:round;stroke-miterlimit:4;stroke-opacity:1" />
      <path
         style="font-style:normal;font-variant:normal;font-weight:bold;font-stretch:normal;font-size:33.22749329px;font-family:'Bitstream Vera Sans';writing-mode:lr-tb;text-anchor:start;fill:#000000;fill-opacity:1;stroke:none;stroke-width:0.10394179px;stroke-linecap:butt;stroke-linejoin:miter;stroke-opacity:1"
         id="path3112"
         d="m 81.968902,36.457513 h 1.102417 v 3.681386 c -2e-6,0.507965 -0.145081,0.887573 -0.43524,1.138826 -0.288252,0.251251 -0.7254,0.376876 -1.311446,0.376878 h -0.223347 v -0.794721 h 0.171804 c 0.229075,0 0.401834,-0.06099 0.51828,-0.182977 0.118354,-0.121984 0.177532,-0.30132 0.177532,-0.538006 v -3.681386"
         inkscape:connector-curvature="0"
         inkscape:export-xdpi="90"
         inkscape:export-ydpi="90" />
      <path
         inkscape:export-ydpi="90"
         inkscape:export-xdpi="90"
         inkscape:connector-curvature="0"
         d="m 98.029279,63.497041 h -1.102417 v -3.681385 c 2e-6,-0.507965 0.145081,-0.887573 0.43524,-1.138825 0.288252,-0.251252 0.7254,-0.376877 1.311446,-0.376879 h 0.223347 v 0.794721 h -0.171804 c -0.229075,10e-7 -0.401834,0.06099 -0.51828,0.182977 -0.118354,0.121985 -0.177532,0.30132 -0.177532,0.538007 v 3.681384"
         id="path3114"
         style="font-style:normal;font-variant:normal;font-weight:bold;font-stretch:normal;font-size:33.22749329px;font-family:'Bitstream Vera Sans';writing-mode:lr-tb;text-anchor:start;fill:#000000;fill-opacity:1;stroke:none;stroke-width:0.10394179px;stroke-linecap:butt;stroke-linejoin:miter;stroke-opacity:1" />
      <g
         id="g3325-5"
         transform="matrix(0.17416613,0,0,0.17416648,63.055333,39.424303)">
        <path
           inkscape:connector-curvature="0"
           d="m 150.52907,17.56334 c -5.97197,3.77388 -13.46945,-3.165242 -17.45267,4.879292 -3.49543,4.782307 7.52973,6.17381 0.56963,10.423911 -4.75622,5.124375 -4.47681,7.380375 -0.36918,8.007692 -1.18232,5.663693 -0.32039,15.170803 2.27409,20.355425 -3.2115,3.903196 -0.80442,2.562381 3.55276,3.376125 -1.35384,2.154525 -0.57647,10.049615 -5.20727,12.488805 -2.33124,7.02153 -0.58347,14.64222 -1.125,21.90625 11.27494,4.74824 24.62504,5.28755 35.40292,2.7547 4.73843,-0.99042 10.14533,-1.36846 9.19083,-8.1297 0.28361,-8.42628 1.28263,-19.51808 -7.91004,-23.83032 -5.37315,-0.75269 -7.16434,-4.387689 -3.0403,-9.549434 3.06287,-8.358093 6.4398,-4.861134 11.14346,-6.974909 4.9011,-1.31117 -7.0014,-4.539622 -5.42958,-9.977281 -1.52268,-4.253859 -3.38369,-9.257732 -6.42986,-12.711112 7.67894,-0.689629 8.50195,-8.697404 2.26007,-10.331944 -6.18656,-4.122308 -9.83712,2.913762 -14.54484,-2.374612 -0.77934,-0.0133 -2.10218,-0.503844 -2.88502,-0.312888 z"
           id="path3729-7"
           sodipodi:nodetypes="cccccccccccccccccc"
           style="fill:#000000;fill-opacity:1;stroke:none;stroke-width:2;stroke-miterlimit:4;stroke-dashoffset:0;stroke-opacity:1" />
        <path
           inkscape:connector-curvature="0"
           d="m 167.87283,48.822639 c 0,11.413332 -7.56387,20.676331 -16.88364,20.676331 -9.31977,0 -16.88363,-9.262999 -16.88363,-20.676331 0,-11.413333 7.56386,-20.676328 16.88363,-20.676328 9.31977,0 16.88364,9.262995 16.88364,20.676328 z"
           id="path1624-6"
           style="fill:url(#linearGradient7118);fill-opacity:1;stroke:none;stroke-width:2;stroke-miterlimit:4;stroke-dashoffset:0;stroke-opacity:1" />
        <path
           inkscape:connector-curvature="0"
           d="m 147.48242,69.97674 c -7.04906,0 -12.72482,5.67576 -12.72482,12.72481 v 14.92936 c 9.37989,4.64913 29.52618,4.89382 40.61891,0 V 82.70155 c 0,-7.04905 -5.67576,-12.72481 -12.72482,-12.72481 z"
           id="path1628-3"
           sodipodi:nodetypes="ccccccc"
           style="fill:url(#linearGradient7120);fill-opacity:1;stroke:none;stroke-width:2;stroke-miterlimit:4;stroke-dashoffset:0;stroke-opacity:1" />
        <path
           inkscape:connector-curvature="0"
           d="m 132.27519,39.19141 c 2.52721,-4.528557 5.05442,-13.180577 19.12733,-13.090857 21.84009,0.639892 16.63026,23.381542 24.45058,25.835757 -4.85288,1.577312 -7.29868,2.928469 -14.54071,0.430167 0.79167,-5.698983 -0.49946,-9.878835 -3.92513,-12.815123 -4.26889,2.238868 -20.73903,1.174601 -25.11207,-0.359944 z"
           id="path1630-9"
           sodipodi:nodetypes="cccccc"
           style="fill:#000000;fill-opacity:1;fill-rule:evenodd;stroke:none;stroke-width:1.53712022px;stroke-linecap:butt;stroke-linejoin:miter;stroke-opacity:1" />
        <g
           id="g1632-0"
           transform="matrix(0.144857,0,0,0.09790296,99.89529,25.53853)">
          <path
             inkscape:connector-curvature="0"
             d="m 353,245.86218 c 0,11.868 -9.408,21.5 -21,21.5 -11.592,0 -21,-9.632 -21,-21.5 0,-11.868 9.408,-21.5 21,-21.5 11.592,0 21,9.632 21,21.5 z"
             id="path1634-4"
             style="fill:#ffffff;fill-opacity:1;stroke:none;stroke-width:2;stroke-miterlimit:4;stroke-dashoffset:0;stroke-opacity:1"
             transform="translate(-4,-6)" />
          <path
             inkscape:connector-curvature="0"
             d="m 353,245.86218 c 0,11.868 -9.408,21.5 -21,21.5 -11.592,0 -21,-9.632 -21,-21.5 0,-11.868 9.408,-21.5 21,-21.5 11.592,0 21,9.632 21,21.5 z"
             id="path1636-5"
             style="fill:#1e2ecf;fill-opacity:1;stroke:none;stroke-width:2;stroke-miterlimit:4;stroke-dashoffset:0;stroke-opacity:1"
             transform="matrix(0.571429,0,0,0.83721,129.2857,34.52408)" />
          <path
             inkscape:connector-curvature="0"
             d="m 353,245.86218 c 0,11.868 -9.408,21.5 -21,21.5 -11.592,0 -21,-9.632 -21,-21.5 0,-11.868 9.408,-21.5 21,-21.5 11.592,0 21,9.632 21,21.5 z"
             id="path1638-6"
             style="fill:#000000;fill-opacity:1;stroke:none;stroke-width:2;stroke-miterlimit:4;stroke-dashoffset:0;stroke-opacity:1"
             transform="matrix(0.357143,0,0,0.674419,195.9286,76.04816)" />
        </g>
        <g
           id="g1640-4"
           transform="matrix(0.144857,0,0,0.09790296,89.80679,25.19761)">
          <path
             inkscape:connector-curvature="0"
             d="m 353,245.86218 c 0,11.868 -9.408,21.5 -21,21.5 -11.592,0 -21,-9.632 -21,-21.5 0,-11.868 9.408,-21.5 21,-21.5 11.592,0 21,9.632 21,21.5 z"
             id="path1642-8"
             style="fill:#ffffff;fill-opacity:1;stroke:none;stroke-width:2;stroke-miterlimit:4;stroke-dashoffset:0;stroke-opacity:1"
             transform="translate(-4,-6)" />
          <path
             inkscape:connector-curvature="0"
             d="m 353,245.86218 c 0,11.868 -9.408,21.5 -21,21.5 -11.592,0 -21,-9.632 -21,-21.5 0,-11.868 9.408,-21.5 21,-21.5 11.592,0 21,9.632 21,21.5 z"
             id="path1644-9"
             style="fill:#1828ce;fill-opacity:1;stroke:none;stroke-width:2;stroke-miterlimit:4;stroke-dashoffset:0;stroke-opacity:1"
             transform="matrix(0.571429,0,0,0.83721,129.2857,34.52408)" />
          <path
             inkscape:connector-curvature="0"
             d="m 353,245.86218 c 0,11.868 -9.408,21.5 -21,21.5 -11.592,0 -21,-9.632 -21,-21.5 0,-11.868 9.408,-21.5 21,-21.5 11.592,0 21,9.632 21,21.5 z"
             id="path1646-2"
             style="fill:#000000;fill-opacity:1;stroke:none;stroke-width:2;stroke-miterlimit:4;stroke-dashoffset:0;stroke-opacity:1"
             transform="matrix(0.357143,0,0,0.674419,195.9286,76.04816)" />
        </g>
        <path
           inkscape:connector-curvature="0"
           d="m 139.43865,62.204825 c 1.8485,3.622175 6.90032,1.943217 11.72783,0 -5.32386,0.559667 -8.99261,0.969229 -11.72783,0 z"
           id="path1648-0"
           sodipodi:nodetypes="ccc"
           style="fill:url(#linearGradient6932);fill-opacity:1;fill-rule:evenodd;stroke:none;stroke-width:1px;stroke-linecap:butt;stroke-linejoin:miter;stroke-opacity:1" />
        <path
           inkscape:connector-curvature="0"
           d="m 161.57996,85.85585 1.26359,0.12326 1.37136,14.51276 -3.46519,0.46578 z"
           id="path1650-0"
           sodipodi:nodetypes="ccccc"
           style="fill:#700000;fill-opacity:1;stroke:none;stroke-width:2;stroke-miterlimit:4;stroke-dashoffset:0;stroke-opacity:1" />
        <path
           inkscape:connector-curvature="0"
           d="m 141.63609,50.146735 c -0.7919,1.28683 -1.9449,3.402418 -1.78064,4.374858 0.16427,0.97244 1.65238,0.762472 2.44234,1.323082 l 0.33085,-0.47789 c -0.69469,-0.49301 -1.78293,-0.008 -1.91799,-0.807565 -0.13505,-0.79956 0.68108,-2.914865 1.42171,-4.118405 z"
           id="path1652-4"
           sodipodi:nodetypes="ccccccc"
           style="fill:#000000;fill-opacity:1;fill-rule:evenodd;stroke:none;stroke-width:1px;stroke-linecap:butt;stroke-linejoin:miter;stroke-opacity:1" />
        <path
           inkscape:connector-curvature="0"
           d="m 142.93035,57.799717 c -3.80355,0.377788 -6.13342,3.301038 -8.06137,5.420458 0,0 6.2375,-3.456284 8.20167,-3.386135 -0.1403,-0.491044 0.0702,-1.122385 -0.1403,-2.034323 z"
           id="path1656-9"
           sodipodi:nodetypes="cccc"
           style="fill:#000000;fill-opacity:1;fill-rule:evenodd;stroke:none;stroke-width:1px;stroke-linecap:butt;stroke-linejoin:miter;stroke-opacity:1" />
        <path
           inkscape:connector-curvature="0"
           d="m 143.79875,57.655349 c 3.38195,0.346118 9.84525,2.969755 10.14585,5.459421 0,0 -7.88557,-4.217848 -9.7388,-3.563277 -0.013,-0.510527 -0.33502,-0.963014 -0.40705,-1.896144 z"
           id="path1658-4"
           sodipodi:nodetypes="cccc"
           style="fill:#000000;fill-opacity:1;fill-rule:evenodd;stroke:none;stroke-width:1px;stroke-linecap:butt;stroke-linejoin:miter;stroke-opacity:1" />
        <path
           inkscape:connector-curvature="0"
           d="m 141.27046,71.64923 c 3.63328,11.22307 8.70407,20.94614 14.46235,29.54421 l 3.68565,-0.11199 C 153.68072,91.87347 147.69298,81.478 144.26774,70.27003 c 0,0 -2.03609,0.62409 -2.99728,1.3792 z"
           id="path1666-9"
           sodipodi:nodetypes="ccccc"
           style="fill:url(#linearGradient7122);fill-opacity:1;fill-rule:evenodd;stroke:none;stroke-width:1px;stroke-linecap:butt;stroke-linejoin:miter;stroke-opacity:1" />
        <path
           inkscape:connector-curvature="0"
           d="m 138.68848,68.13095 -0.25,10.25 9.3125,-5.6875 v 1.4375 l 3.6875,0.3125 -0.0625,-1.9375 12.125,5.4375 -1.25,-12.0625 -10.6875,5.4375 -0.25,-1.8125 -3.75,-0.25 v 1.9375 z"
           id="path2436-5"
           sodipodi:nodetypes="ccccccccccccc"
           style="fill:url(#linearGradient7124);fill-opacity:1;fill-rule:evenodd;stroke:none;stroke-width:1px;stroke-linecap:butt;stroke-linejoin:miter;stroke-opacity:1" />
        <path
           inkscape:connector-curvature="0"
           d="m 138.49393,28.03209 -0.53718,2.599675 c 7.66667,2.229167 17.90768,1.877245 26.76185,0.918912 -0.0186,-0.358968 -0.34967,-2.518587 -0.34967,-2.518587 -8.52083,0.875 -19.41667,0.8125 -25.875,-1 z"
           id="path1466-2"
           sodipodi:nodetypes="ccccc"
           style="fill:url(#linearGradient6938);fill-opacity:1;fill-rule:evenodd;stroke:none;stroke-width:1px;stroke-linecap:butt;stroke-linejoin:miter;stroke-opacity:1" />
        <path
           inkscape:connector-curvature="0"
           d="m 150.74393,29.59459 c 28.52083,3.833333 23.47917,-13.395833 1.5625,-7.625 -21.14584,-7.458333 -26.22917,9.833333 -1.5625,7.625 z"
           id="path2448-1"
           sodipodi:nodetypes="ccc"
           style="fill:url(#linearGradient6940);fill-opacity:1;fill-rule:evenodd;stroke:none;stroke-width:1px;stroke-linecap:butt;stroke-linejoin:miter;stroke-opacity:1" />
        <ellipse
           ry="1.65625"
           rx="3.71875"
           cy="56.40625"
           cx="107.09375"
           id="path3498-2"
           style="fill:url(#linearGradient6942);fill-opacity:1;stroke:none;stroke-width:2;stroke-miterlimit:4;stroke-dashoffset:0;stroke-opacity:1"
           transform="translate(44.30643,-35.21791)" />
        <path
           inkscape:connector-curvature="0"
           d="m 151.40274,19.54375 c -1.81046,0 -3.13777,0.611685 -3.46925,1.375 -12.88121,-2.72131 -17.58211,4.484321 -9.53261,7.5625 l -0.40631,2.0625 c -2.99834,2.789006 -4.39251,6.278599 -5.71957,8.65625 0.75133,0.26361 2.22081,0.497256 3.56301,0.71875 -1.06738,2.71138 -1.719,5.69655 -1.719,8.90625 0,4.4709 1.1842,8.58533 3.15671,11.96875 -0.84974,0.816 -1.71153,1.67352 -2.4066,2.4375 0,0 1.45776,-0.77841 3.00043,-1.53125 3.02756,4.62079 7.59736,7.65185 12.78308,7.78125 l -3.09419,-0.21875 v 0.71875 h -0.0625 c -0.91622,0 -1.8275,0.09897 -2.68788,0.28125 l -6.12588,-2.125 -0.12502,5.53125 c -2.32941,2.30379 -3.78179,5.48161 -3.78179,9.03125 v 14.9375 c 4.95763,2.45689 12.89405,3.61152 20.9405,3.5 0.0127,0.019 0.0185,0.0435 0.0312,0.0625 l 3.68803,-0.0937 c -0.05,-0.0802 -0.10624,-0.16961 -0.15627,-0.25 0.4947,-0.0318 0.97767,-0.0828 1.46896,-0.125 v 0.25 l 3.46925,-0.46875 v -0.0312 c 4.13511,-0.57877 8.02196,-1.46048 11.15785,-2.84375 V 82.7001 c -1e-5,-7.0384 -5.65405,-12.70164 -12.68932,-12.71875 l -0.43756,-4.09375 -8.0324,4.09375 h -2.84416 l -0.0625,-0.46875 h -0.21878 c 7.92631,-0.05332 14.51777,-6.81624 16.28358,-15.875 3.10222,0.16238 5.34441,-0.6616 8.50122,-1.6875 -5.48359,-1.72064 -4.73404,-13.318263 -11.22036,-20.375 0.02,-0.0022 0.0425,0.0022 0.0625,0 -0.0154,-0.296864 -0.20247,-1.57381 -0.28129,-2.09375 10.99154,-2.385326 5.53861,-10.841066 -9.68889,-7.90625 0.0865,-0.140071 0.37506,-0.222742 0.37506,-0.375 0,-0.91425 -1.66624,-1.65625 -3.71929,-1.65625 z"
           id="path3631-9"
           style="fill:url(#linearGradient7126);fill-opacity:1;stroke:none;stroke-width:2;stroke-miterlimit:4;stroke-dashoffset:0;stroke-opacity:1" />
      </g>
    </g>
  </g>
</svg>
